…
``` r
if (!require("remotes")) install.packages("remotes")
remotes::install_github("mrcaseb/worldtimer")
```

## Usage

To get a tibble of all valid timezone names run

``` r
library(worldtimer)
worldtimer_timezones()
#> # A tibble: 386 × 1
#>    timezone           
#>    <chr>              
#>  1 Africa/Abidjan     
#>  2 Africa/Accra       
#>  3 Africa/Algiers     
#>  4 Africa/Bissau      
#>  5 Africa/Cairo       
#>  6 Africa/Casablanca  
#>  7 Africa/Ceuta       
#>  8 Africa/El_Aaiun    
#>  9 Africa/Johannesburg
#> 10 Africa/Juba        
#> # … with 376 more rows
```
…
